<?xml version="1.0" encoding="UTF-8" standalone="no"?>
<svg
   xmlns:dc="http://purl.org/dc/elements/1.1/"
   xmlns:cc="http://creativecommons.org/ns#"
   xmlns:rdf="http://www.w3.org/1999/02/22-rdf-syntax-ns#"
   xmlns:svg="http://www.w3.org/2000/svg"
   xmlns="http://www.w3.org/2000/svg"
   viewBox="0 0 8915.2529 3744.2"
   height="3744.2"
   width="8915.2529"
   xml:space="preserve"
   id="svg2"
   version="1.1"><metadata
     id="metadata8"><rdf:RDF><cc:Work
         rdf:about=""><dc:format>image/svg+xml</dc:format><dc:type
           rdf:resource="http://purl.org/dc/dcmitype/StillImage" /></cc:Work></rdf:RDF></metadata><defs
     id="defs6" /><g
     transform="matrix(1.3333333,0,0,-1.3333333,0,3744.2)"
     id="g10"><g
       transform="scale(0.1)"
       id="g12"><g
         transform="scale(2.19171)"
         id="g14"><path
           id="path16"
           style="fill:#fab615;fill-opacity:1;fill-rule:nonzero;stroke:none"
           d="m 13644.5,12149.7 h 695.4 v -1971 c 0,-580.38 268.3,-755.59 689.9,-755.59 240.9,0 410.6,21.9 574.9,49.28 V 12149.7 H 16300 V 9001.52 c -290.2,-87.6 -865.1,-158.78 -1270.2,-158.78 -739.2,0 -1385.3,279.24 -1385.3,1193.56 v 2113.4" /></g><g
         transform="scale(2.60102)"
         id="g18"><path
           id="path20"
           style="fill:#fab615;fill-opacity:1;fill-rule:nonzero;stroke:none"
           d="m 16253.9,9471.93 c -175.4,175.32 -433.7,286.04 -747.4,286.04 -493.7,0 -816.6,-364.47 -816.6,-890.41 0,-539.79 350.6,-890.42 839.6,-890.42 313.8,0 539.8,92.27 770.5,281.43 v -604.38 c -253.7,-152.24 -516.7,-202.99 -793.5,-202.99 -858.2,0 -1416.4,581.31 -1416.4,1416.36 0,839.67 581.3,1416.34 1416.4,1416.34 276.8,0 525.9,-55.3 747.4,-184.5 v -627.47" /></g><g
         transform="scale(2.92568)"
         id="g22"><path
           id="path24"
           style="fill:#fab615;fill-opacity:1;fill-rule:nonzero;stroke:none"
           d="m 14823.4,9101.72 h 520.9 V 7120.65 h 955.7 v -455.28 h -1476.6 v 2436.35" /></g><g
         transform="scale(3.39168)"
         id="g26"><path
           id="path28"
           style="fill:#fab615;fill-opacity:1;fill-rule:nonzero;stroke:none"
           d="m 15206.7,7416.01 -314.9,-856.21 h 626.3 z m -449.3,-1220.63 -162.7,-445.8 h -470.6 l 813.7,2101.61 h 541.4 L 16300,5749.58 h -488.3 l -162.7,445.8 h -891.6" /></g><g
         transform="scale(2.17036)"
         id="g30"><path
           id="path32"
           style="fill:#29458c;fill-opacity:1;fill-rule:nonzero;stroke:none"
           d="m 16244.7,7204.65 c -210.1,210.1 -519.7,342.8 -895.7,342.8 -591.6,0 -978.6,-436.79 -978.6,-1067.1 0,-646.9 420.2,-1067.11 1006.3,-1067.11 375.9,0 646.8,110.59 923.3,337.28 v -724.31 c -304.1,-182.46 -619.3,-243.27 -951,-243.27 -1028.4,0 -1697.4,696.65 -1697.4,1697.41 0,1006.28 696.7,1697.41 1697.4,1697.41 331.7,0 630.3,-66.35 895.7,-221.16 v -751.95" /></g><g
         transform="scale(2.58042)"
         id="g34"><path
           id="path36"
           style="fill:#29458c;fill-opacity:1;fill-rule:nonzero;stroke:none"
           d="m 14044.6,6831.72 h 590.6 V 5157.58 c 0,-492.95 227.8,-641.76 585.9,-641.76 204.6,0 348.8,18.6 488.3,41.85 V 6831.72 H 16300 V 4157.74 c -246.5,-74.41 -734.8,-134.86 -1078.9,-134.86 -627.8,0 -1176.5,237.17 -1176.5,1013.79 v 1795.05" /></g><g
         transform="scale(3.00887)"
         id="g38"><path
           id="path40"
           style="fill:#29458c;fill-opacity:1;fill-rule:nonzero;stroke:none"
           d="m 14916.1,4702.33 h 171.5 c 287.1,0 474.6,107.68 474.6,382.87 0,255.24 -183.5,374.89 -474.6,374.89 -47.9,0 -131.6,-3.99 -171.5,-7.98 z m 0,-1212.42 h -502.5 v 2361.02 c 167.5,27.92 454.6,47.86 674,47.86 614.2,0 989.1,-267.21 989.1,-797.64 0,-342.99 -195.5,-586.27 -450.7,-701.93 l 674,-909.31 h -598.2 l -566.4,797.64 h -219.3 v -797.64" /></g><g
         transform="scale(3.34899)"
         id="g42"><path
           id="path44"
           style="fill:#29458c;fill-opacity:1;fill-rule:nonzero;stroke:none"
           d="m 15644.3,3135.48 h -447.9 v 1730.67 h -655.7 v 397.73 H 16300 v -397.73 h -655.7 V 3135.48" /></g><g
         transform="scale(3.48445)"
         id="g46"><path
           id="path48"
           style="fill:#29458c;fill-opacity:1;fill-rule:nonzero;stroke:none"
           d="m 16300,3013.59 h -437.4 V 5059.24 H 16300 V 3013.59" /></g><g
         transform="scale(3.82456)"
         id="g50"><path
           id="path52"
           style="fill:#29458c;fill-opacity:1;fill-rule:nonzero;stroke:none"
           d="m 15104.6,3244.47 c 141.2,-106.67 298,-191.39 505.1,-191.39 160,0 301.2,56.48 301.2,210.22 0,141.19 -116.1,194.53 -310.6,251.01 -373.4,103.54 -527.1,260.42 -527.1,574.18 0,354.55 276.1,552.22 621.2,552.22 210.3,0 364,-53.34 495.8,-138.05 v -392.2 c -147.5,119.22 -298.1,191.39 -483.2,191.39 -160,0 -247.9,-78.44 -247.9,-194.53 0,-131.78 106.7,-185.12 323.2,-244.74 373.4,-106.68 517.7,-272.97 517.7,-586.73 0,-389.06 -307.5,-561.63 -690.3,-561.63 -203.9,0 -385.9,56.47 -505.1,134.91 v 395.34" /></g><g
         transform="scale(2.17036)"
         id="g54"><path
           id="path56"
           style="fill:#4ca2df;fill-opacity:1;fill-rule:nonzero;stroke:none"
           d="m 16244.7,3057.88 c -210.1,210.1 -519.7,342.8 -895.7,342.8 -591.6,0 -978.6,-436.79 -978.6,-1067.1 0,-646.9 420.2,-1067.11 1006.3,-1067.11 375.9,0 646.8,110.58 923.3,337.27 V 879.438 c -304.1,-182.456 -619.3,-243.277 -951,-243.277 -1028.4,0 -1697.4,696.659 -1697.4,1697.419 0,1006.28 696.7,1697.41 1697.4,1697.41 331.7,0 630.3,-66.35 895.7,-221.16 v -751.95" /></g><g
         transform="scale(2.51342)"
         id="g58"><path
           id="path60"
           style="fill:#4ca2df;fill-opacity:1;fill-rule:nonzero;stroke:none"
           d="M 16300,1127.03 V 597.074 H 14461.9 V 3433.05 h 1809.5 v -529.96 h -1212.7 v -620.67 h 1112.4 v -520.4 H 15058.7 V 1127.03 H 16300" /></g><g
         transform="scale(2.95955)"
         id="g62"><path
           id="path64"
           style="fill:#4ca2df;fill-opacity:1;fill-rule:nonzero;stroke:none"
           d="M 15805.3,1293.68 V 2915.55 H 16300 V 507.071 h -486.6 l -1119,1601.599 V 507.071 h -494.7 V 2915.55 h 519 l 1086.6,-1621.87" /></g><g
         transform="scale(3.36372)"
         id="g66"><path
           id="path68"
           style="fill:#4ca2df;fill-opacity:1;fill-rule:nonzero;stroke:none"
           d="m 15647.2,446.143 h -446 V 2169.24 h -652.8 v 395.99 H 16300 v -395.99 h -652.8 V 446.143" /></g><g
         transform="scale(3.68912)"
         id="g70"><path
           id="path72"
           style="fill:#4ca2df;fill-opacity:1;fill-rule:nonzero;stroke:none"
           d="M 16300,767.854 V 406.791 H 15047.7 V 2338.96 h 1232.8 V 1977.9 h -826.2 v -422.87 h 757.9 v -354.55 h -757.9 V 767.854 h 845.7" /></g><g
         transform="scale(4.10209)"
         id="g74"><path
           id="path76"
           style="fill:#4ca2df;fill-opacity:1;fill-rule:nonzero;stroke:none"
           d="m 15285,1255.14 h 125.8 c 210.6,0 348.1,78.99 348.1,280.83 0,187.23 -134.6,274.99 -348.1,274.99 -35.1,0 -96.5,-2.93 -125.8,-5.85 z m 0,-889.302 h -368.6 V 2097.64 c 122.9,20.48 333.5,35.1 494.4,35.1 450.5,0 725.5,-195.99 725.5,-585.06 0,-251.58 -143.4,-430.03 -330.6,-514.86 l 494.4,-666.982 h -438.8 l -415.4,585.068 H 15285 V 365.838" /></g><g
         transform="scale(1.63452)"
         id="g78"><path
           id="path80"
           style="fill:#fab615;fill-opacity:1;fill-rule:nonzero;stroke:none"
           d="m 10968.9,13921.3 c -2944.26,0 -5331.1,-2386.9 -5331.1,-5331.17 0,-2944.24 2386.84,-5331.12 5331.1,-5331.12 2944.3,0 5331.1,2386.88 5331.1,5331.12 0,2944.27 -2386.8,5331.17 -5331.1,5331.17" /></g><g
         transform="scale(1.4828)"
         id="g82"><path
           id="path84"
           style="fill:#4ca2df;fill-opacity:1;fill-rule:nonzero;stroke:none"
           d="M 3431.94,16300 C 1536.53,16300 0,14763.5 0,12868.1 0,10972.6 1536.53,9436.15 3431.94,9436.15 c 1895.39,0 3431.91,1536.45 3431.91,3431.95 0,1895.4 -1536.52,3431.9 -3431.91,3431.9" /></g><path
         id="path86"
         style="fill:#29458c;fill-opacity:1;fill-rule:nonzero;stroke:none"
         d="M 5088.87,14089.6 C 2278.36,14089.6 0,11811.2 0,9000.7 0,6190.2 2278.36,3911.9 5088.87,3911.9 c 2810.48,0 5088.83,2278.3 5088.83,5088.8 0,2810.5 -2278.35,5088.9 -5088.83,5088.9" /><path
         id="path88"
         style="fill:#4ca2df;fill-opacity:1;fill-rule:nonzero;stroke:none"
         d="M 11688.9,6961.5 C 9766.46,6961.5 8208.08,5403.1 8208.08,3480.7 8208.08,1558.3 9766.46,0 11688.9,0 c 1922.3,0 3480.7,1558.3 3480.7,3480.7 0,1922.4 -1558.4,3480.8 -3480.7,3480.8" /><g
         transform="scale(1.72279)"
         id="g90"><path
           id="path92"
           style="fill:#29458c;fill-opacity:1;fill-rule:nonzero;stroke:none"
           d="m 6784.86,16300 c -1115.89,0 -2020.45,-904.6 -2020.45,-2020.4 0,-1115.9 904.56,-2020.4 2020.45,-2020.4 1115.81,0 2020.39,904.5 2020.39,2020.4 0,1115.8 -904.58,2020.4 -2020.39,2020.4" /></g><g
         transform="scale(1.19509)"
         id="g94"><path
           id="path96"
           style="fill:#29458c;fill-opacity:1;fill-rule:nonzero;stroke:none"
           d="m 14500.1,4411.21 c -994.2,0 -1800.1,-805.8 -1800.1,-1799.95 0,-994.06 805.9,-1799.94 1800.1,-1799.94 994,0 1799.9,805.88 1799.9,1799.94 0,994.15 -805.9,1799.95 -1799.9,1799.95" /></g><g
         transform="scale(1.6633)"
         id="g98"><path
           id="path100"
           style="fill:#4ca2df;fill-opacity:1;fill-rule:nonzero;stroke:none"
           d="m 10418.4,16300 c -714.33,0 -1293.36,-579 -1293.36,-1293.3 0,-714.2 579.03,-1293.2 1293.36,-1293.2 714.2,0 1293.2,579 1293.2,1293.2 0,714.3 -579,1293.3 -1293.2,1293.3" /></g><g
         transform="scale(1.35081)"
         id="g102"><path
           id="path104"
           style="fill:#4ca2df;fill-opacity:1;fill-rule:nonzero;stroke:none"
           d="m 15315.9,4182.75 c -543.5,0 -984.1,-440.62 -984.1,-984.15 0,-543.45 440.6,-984.08 984.1,-984.08 543.5,0 984.1,440.63 984.1,984.08 0,543.53 -440.6,984.15 -984.1,984.15" /></g><g
         transform="scale(1.53927)"
         id="g106"><path
           id="path108"
           style="fill:#29458c;fill-opacity:1;fill-rule:nonzero;stroke:none"
           d="m 13440.7,16300 c -477,0 -863.6,-386.7 -863.6,-863.6 0,-477 386.6,-863.7 863.6,-863.7 476.9,0 863.6,386.7 863.6,863.7 0,476.9 -386.7,863.6 -863.6,863.6" /></g></g></g></svg>