<?xml version="1.0" encoding="utf-8"?>
<!-- Generator: Adobe Illustrator 24.3.0, SVG Export Plug-In . SVG Version: 6.00 Build 0)  -->
<svg version="1.1"
	 id="svg2_copy" xmlns:cc="http://creativecommons.org/ns#" xmlns:dc="http://purl.org/dc/elements/1.1/" xmlns:rdf="http://www.w3.org/1999/02/22-rdf-syntax-ns#" xmlns:svg="http://www.w3.org/2000/svg"
	 xmlns="http://www.w3.org/2000/svg" xmlns:xlink="http://www.w3.org/1999/xlink" x="0px" y="0px" viewBox="0 0 8915.3 3744.2"
	 style="enable-background:new 0 0 8915.3 3744.2;" xml:space="preserve">
<style type="text/css">
	.st0{fill:#FFFFFF;stroke:#666666;stroke-width:100;stroke-linecap:round;stroke-linejoin:round;stroke-miterlimit:10;}
	.st1{fill:#E6E6E6;stroke:#666666;stroke-width:100;stroke-linecap:round;stroke-linejoin:round;stroke-miterlimit:10;}
	.st2{fill:#F2F2F2;stroke:#666666;stroke-width:100;stroke-linecap:round;stroke-linejoin:round;stroke-miterlimit:10;}
	.st3{fill:#FFFFFF;}
	.st4{fill:#E6E6E6;}
	.st5{fill:#F2F2F2;}
</style>
<g id="g10" transform="matrix(1.3333333,0,0,-1.3333333,0,3744.2)">
	<g id="g12" transform="scale(0.1)">
		<g id="g14" transform="scale(2.19171)">
			<path id="path16" class="st0" d="M13644.5,12149.7h695.4v-1971c0-580.4,268.3-755.6,689.9-755.6c240.9,0,410.6,21.9,574.9,49.3
				v2677.3h695.3V9001.5c-290.2-87.6-865.1-158.8-1270.2-158.8c-739.2,0-1385.3,279.2-1385.3,1193.6V12149.7"/>
		</g>
		<g id="g18" transform="scale(2.60102)">
			<path id="path20" class="st0" d="M16253.9,9471.9c-175.4,175.3-433.7,286-747.4,286c-493.7,0-816.6-364.5-816.6-890.4
				c0-539.8,350.6-890.4,839.6-890.4c313.8,0,539.8,92.3,770.5,281.4v-604.4c-253.7-152.2-516.7-203-793.5-203
				c-858.2,0-1416.4,581.3-1416.4,1416.4c0,839.7,581.3,1416.3,1416.4,1416.3c276.8,0,525.9-55.3,747.4-184.5V9471.9"/>
		</g>
		<g id="g22" transform="scale(2.92568)">
			<path id="path24" class="st0" d="M14823.4,9101.7h520.9V7120.7h955.7v-455.3h-1476.6L14823.4,9101.7"/>
		</g>
		<g id="g26" transform="scale(3.39168)">
			<path id="path28" class="st0" d="M15206.7,7416l-314.9-856.2h626.3L15206.7,7416z M14757.4,6195.4l-162.7-445.8h-470.6
				l813.7,2101.6h541.4l820.8-2101.6h-488.3l-162.7,445.8H14757.4"/>
		</g>
		<g id="g30" transform="scale(2.17036)">
			<path id="path32" class="st1" d="M16244.7,7204.7c-210.1,210.1-519.7,342.8-895.7,342.8c-591.6,0-978.6-436.8-978.6-1067.1
				c0-646.9,420.2-1067.1,1006.3-1067.1c375.9,0,646.8,110.6,923.3,337.3v-724.3c-304.1-182.5-619.3-243.3-951-243.3
				c-1028.4,0-1697.4,696.6-1697.4,1697.4c0,1006.3,696.7,1697.4,1697.4,1697.4c331.7,0,630.3-66.4,895.7-221.2V7204.7"/>
		</g>
		<g id="g34" transform="scale(2.58042)">
			<path id="path36" class="st1" d="M14044.6,6831.7h590.6V5157.6c0-493,227.8-641.8,585.9-641.8c204.6,0,348.8,18.6,488.3,41.9
				v2274.1h590.6v-2674c-246.5-74.4-734.8-134.9-1078.9-134.9c-627.8,0-1176.5,237.2-1176.5,1013.8V6831.7"/>
		</g>
		<g id="g38" transform="scale(3.00887)">
			<path id="path40" class="st1" d="M14916.1,4702.3h171.5c287.1,0,474.6,107.7,474.6,382.9c0,255.2-183.5,374.9-474.6,374.9
				c-47.9,0-131.6-4-171.5-8V4702.3z M14916.1,3489.9h-502.5v2361c167.5,27.9,454.6,47.9,674,47.9c614.2,0,989.1-267.2,989.1-797.6
				c0-343-195.5-586.3-450.7-701.9l674-909.3h-598.2l-566.4,797.6h-219.3L14916.1,3489.9"/>
		</g>
		<g id="g42" transform="scale(3.34899)">
			<path id="path44" class="st1" d="M15644.3,3135.5h-447.9v1730.7h-655.7v397.7H16300v-397.7h-655.7V3135.5"/>
		</g>
		<g id="g46" transform="scale(3.48445)">
			<path id="path48" class="st1" d="M16300,3013.6h-437.4v2045.7h437.4V3013.6"/>
		</g>
		<g id="g50" transform="scale(3.82456)">
			<path id="path52" class="st1" d="M15104.6,3244.5c141.2-106.7,298-191.4,505.1-191.4c160,0,301.2,56.5,301.2,210.2
				c0,141.2-116.1,194.5-310.6,251c-373.4,103.5-527.1,260.4-527.1,574.2c0,354.6,276.1,552.2,621.2,552.2
				c210.3,0,364-53.3,495.8-138v-392.2c-147.5,119.2-298.1,191.4-483.2,191.4c-160,0-247.9-78.4-247.9-194.5
				c0-131.8,106.7-185.1,323.2-244.7c373.4-106.7,517.7-273,517.7-586.7c0-389.1-307.5-561.6-690.3-561.6
				c-203.9,0-385.9,56.5-505.1,134.9L15104.6,3244.5"/>
		</g>
		<g id="g54" transform="scale(2.17036)">
			<path id="path56" class="st2" d="M16244.7,3057.9c-210.1,210.1-519.7,342.8-895.7,342.8c-591.6,0-978.6-436.8-978.6-1067.1
				c0-646.9,420.2-1067.1,1006.3-1067.1c375.9,0,646.8,110.6,923.3,337.3V879.4c-304.1-182.5-619.3-243.3-951-243.3
				c-1028.4,0-1697.4,696.7-1697.4,1697.4c0,1006.3,696.7,1697.4,1697.4,1697.4c331.7,0,630.3-66.4,895.7-221.2V3057.9"/>
		</g>
		<g id="g58" transform="scale(2.51342)">
			<path id="path60" class="st2" d="M16300,1127v-530h-1838.1v2836h1809.5v-530h-1212.7v-620.7h1112.4V1762h-1112.4v-635H16300"/>
		</g>
		<g id="g62" transform="scale(2.95955)">
			<path id="path64" class="st2" d="M15805.3,1293.7v1621.9h494.7V507.1h-486.6l-1119,1601.6V507.1h-494.7v2408.5h519
				L15805.3,1293.7"/>
		</g>
		<g id="g66" transform="scale(3.36372)">
			<path id="path68" class="st2" d="M15647.2,446.1h-446v1723.1h-652.8v396H16300v-396h-652.8V446.1"/>
		</g>
		<g id="g70" transform="scale(3.68912)">
			<path id="path72" class="st2" d="M16300,767.9V406.8h-1252.3V2339h1232.8v-361.1h-826.2V1555h757.9v-354.6h-757.9V767.9H16300"/>
		</g>
		<g id="g74" transform="scale(4.10209)">
			<path id="path76" class="st2" d="M15285,1255.1h125.8c210.6,0,348.1,79,348.1,280.8c0,187.2-134.6,275-348.1,275
				c-35.1,0-96.5-2.9-125.8-5.8V1255.1z M15285,365.8h-368.6v1731.8c122.9,20.5,333.5,35.1,494.4,35.1
				c450.5,0,725.5-196,725.5-585.1c0-251.6-143.4-430-330.6-514.9l494.4-667h-438.8l-415.4,585.1H15285V365.8"/>
		</g>
		<g id="g78" transform="scale(1.63452)">
			<path id="path80" class="st0" d="M10968.9,13921.3c-2944.3,0-5331.1-2386.9-5331.1-5331.2c0-2944.2,2386.8-5331.1,5331.1-5331.1
				c2944.3,0,5331.1,2386.9,5331.1,5331.1C16300,11534.4,13913.2,13921.3,10968.9,13921.3"/>
		</g>
		<g id="g82" transform="scale(1.4828)">
			<path id="path84" class="st2" d="M3431.9,16300C1536.5,16300,0,14763.5,0,12868.1c0-1895.5,1536.5-3432,3431.9-3432
				c1895.4,0,3431.9,1536.5,3431.9,3432C6863.9,14763.5,5327.3,16300,3431.9,16300"/>
		</g>
		<path id="path86" class="st1" d="M5088.9,14089.6C2278.4,14089.6,0,11811.2,0,9000.7s2278.4-5088.8,5088.9-5088.8
			c2810.5,0,5088.8,2278.3,5088.8,5088.8S7899.4,14089.6,5088.9,14089.6"/>
		<path id="path88" class="st2" d="M11688.9,6961.5c-1922.4,0-3480.8-1558.4-3480.8-3480.8S9766.5,0,11688.9,0
			c1922.3,0,3480.7,1558.3,3480.7,3480.7S13611.2,6961.5,11688.9,6961.5"/>
		<g id="g90" transform="scale(1.72279)">
			<path id="path92" class="st1" d="M6784.9,16300c-1115.9,0-2020.5-904.6-2020.5-2020.4c0-1115.9,904.6-2020.4,2020.5-2020.4
				c1115.8,0,2020.4,904.5,2020.4,2020.4C8805.3,15395.4,7900.7,16300,6784.9,16300"/>
		</g>
		<g id="g94" transform="scale(1.19509)">
			<path id="path96" class="st1" d="M14500.1,4411.2c-994.2,0-1800.1-805.8-1800.1-1800c0-994.1,805.9-1799.9,1800.1-1799.9
				c994,0,1799.9,805.9,1799.9,1799.9C16300,3605.4,15494.1,4411.2,14500.1,4411.2"/>
		</g>
		<g id="g98" transform="scale(1.6633)">
			<path id="path100" class="st2" d="M10418.4,16300c-714.3,0-1293.4-579-1293.4-1293.3c0-714.2,579-1293.2,1293.4-1293.2
				c714.2,0,1293.2,579,1293.2,1293.2C11711.6,15721,11132.6,16300,10418.4,16300"/>
		</g>
		<g id="g102" transform="scale(1.35081)">
			<path id="path104" class="st2" d="M15315.9,4182.8c-543.5,0-984.1-440.6-984.1-984.2c0-543.5,440.6-984.1,984.1-984.1
				s984.1,440.6,984.1,984.1C16300,3742.1,15859.4,4182.8,15315.9,4182.8"/>
		</g>
		<g id="g106" transform="scale(1.53927)">
			<path id="path108" class="st1" d="M13440.7,16300c-477,0-863.6-386.7-863.6-863.6c0-477,386.6-863.7,863.6-863.7
				c476.9,0,863.6,386.7,863.6,863.7C14304.3,15913.3,13917.6,16300,13440.7,16300"/>
		</g>
	</g>
</g>
<g id="g10_1_" transform="matrix(1.3333333,0,0,-1.3333333,0,3744.2)">
	<g id="g12_1_" transform="scale(0.1)">
		<g id="g14_1_" transform="scale(2.19171)">
			<path id="path16_1_" class="st3" d="M13644.5,12149.7h695.4v-1971c0-580.4,268.3-755.6,689.9-755.6
				c240.9,0,410.6,21.9,574.9,49.3v2677.3h695.3V9001.5c-290.2-87.6-865.1-158.8-1270.2-158.8c-739.2,0-1385.3,279.2-1385.3,1193.6
				V12149.7"/>
		</g>
		<g id="g18_1_" transform="scale(2.60102)">
			<path id="path20_1_" class="st3" d="M16253.9,9471.9c-175.4,175.3-433.7,286-747.4,286c-493.7,0-816.6-364.5-816.6-890.4
				c0-539.8,350.6-890.4,839.6-890.4c313.8,0,539.8,92.3,770.5,281.4v-604.4c-253.7-152.2-516.7-203-793.5-203
				c-858.2,0-1416.4,581.3-1416.4,1416.4c0,839.7,581.3,1416.3,1416.4,1416.3c276.8,0,525.9-55.3,747.4-184.5V9471.9"/>
		</g>
		<g id="g22_1_" transform="scale(2.92568)">
			<path id="path24_1_" class="st3" d="M14823.4,9101.7h520.9V7120.7h955.7v-455.3h-1476.6L14823.4,9101.7"/>
		</g>
		<g id="g26_1_" transform="scale(3.39168)">
			<path id="path28_1_" class="st3" d="M15206.7,7416l-314.9-856.2h626.3L15206.7,7416z M14757.4,6195.4l-162.7-445.8h-470.6
				l813.7,2101.6h541.4l820.8-2101.6h-488.3l-162.7,445.8H14757.4"/>
		</g>
		<g id="g30_1_" transform="scale(2.17036)">
			<path id="path32_1_" class="st4" d="M16244.7,7204.7c-210.1,210.1-519.7,342.8-895.7,342.8c-591.6,0-978.6-436.8-978.6-1067.1
				c0-646.9,420.2-1067.1,1006.3-1067.1c375.9,0,646.8,110.6,923.3,337.3v-724.3c-304.1-182.5-619.3-243.3-951-243.3
				c-1028.4,0-1697.4,696.6-1697.4,1697.4c0,1006.3,696.7,1697.4,1697.4,1697.4c331.7,0,630.3-66.4,895.7-221.2V7204.7"/>
		</g>
		<g id="g34_1_" transform="scale(2.58042)">
			<path id="path36_1_" class="st4" d="M14044.6,6831.7h590.6V5157.6c0-493,227.8-641.8,585.9-641.8c204.6,0,348.8,18.6,488.3,41.9
				v2274.1h590.6v-2674c-246.5-74.4-734.8-134.9-1078.9-134.9c-627.8,0-1176.5,237.2-1176.5,1013.8V6831.7"/>
		</g>
		<g id="g38_1_" transform="scale(3.00887)">
			<path id="path40_1_" class="st4" d="M14916.1,4702.3h171.5c287.1,0,474.6,107.7,474.6,382.9c0,255.2-183.5,374.9-474.6,374.9
				c-47.9,0-131.6-4-171.5-8V4702.3z M14916.1,3489.9h-502.5v2361c167.5,27.9,454.6,47.9,674,47.9c614.2,0,989.1-267.2,989.1-797.6
				c0-343-195.5-586.3-450.7-701.9l674-909.3h-598.2l-566.4,797.6h-219.3L14916.1,3489.9"/>
		</g>
		<g id="g42_1_" transform="scale(3.34899)">
			<path id="path44_1_" class="st4" d="M15644.3,3135.5h-447.9v1730.7h-655.7v397.7H16300v-397.7h-655.7V3135.5"/>
		</g>
		<g id="g46_1_" transform="scale(3.48445)">
			<path id="path48_1_" class="st4" d="M16300,3013.6h-437.4v2045.7h437.4V3013.6"/>
		</g>
		<g id="g50_1_" transform="scale(3.82456)">
			<path id="path52_1_" class="st4" d="M15104.6,3244.5c141.2-106.7,298-191.4,505.1-191.4c160,0,301.2,56.5,301.2,210.2
				c0,141.2-116.1,194.5-310.6,251c-373.4,103.5-527.1,260.4-527.1,574.2c0,354.6,276.1,552.2,621.2,552.2
				c210.3,0,364-53.3,495.8-138v-392.2c-147.5,119.2-298.1,191.4-483.2,191.4c-160,0-247.9-78.4-247.9-194.5
				c0-131.8,106.7-185.1,323.2-244.7c373.4-106.7,517.7-273,517.7-586.7c0-389.1-307.5-561.6-690.3-561.6
				c-203.9,0-385.9,56.5-505.1,134.9L15104.6,3244.5"/>
		</g>
		<g id="g54_1_" transform="scale(2.17036)">
			<path id="path56_1_" class="st5" d="M16244.7,3057.9c-210.1,210.1-519.7,342.8-895.7,342.8c-591.6,0-978.6-436.8-978.6-1067.1
				c0-646.9,420.2-1067.1,1006.3-1067.1c375.9,0,646.8,110.6,923.3,337.3V879.4c-304.1-182.5-619.3-243.3-951-243.3
				c-1028.4,0-1697.4,696.7-1697.4,1697.4c0,1006.3,696.7,1697.4,1697.4,1697.4c331.7,0,630.3-66.4,895.7-221.2V3057.9"/>
		</g>
		<g id="g58_1_" transform="scale(2.51342)">
			<path id="path60_1_" class="st5" d="M16300,1127v-530h-1838.1v2836h1809.5v-530h-1212.7v-620.7h1112.4V1762h-1112.4v-635H16300"
				/>
		</g>
		<g id="g62_1_" transform="scale(2.95955)">
			<path id="path64_1_" class="st5" d="M15805.3,1293.7v1621.9h494.7V507.1h-486.6l-1119,1601.6V507.1h-494.7v2408.5h519
				L15805.3,1293.7"/>
		</g>
		<g id="g66_1_" transform="scale(3.36372)">
			<path id="path68_1_" class="st5" d="M15647.2,446.1h-446v1723.1h-652.8v396H16300v-396h-652.8V446.1"/>
		</g>
		<g id="g70_1_" transform="scale(3.68912)">
			<path id="path72_1_" class="st5" d="M16300,767.9V406.8h-1252.3V2339h1232.8v-361.1h-826.2V1555h757.9v-354.6h-757.9V767.9H16300
				"/>
		</g>
		<g id="g74_1_" transform="scale(4.10209)">
			<path id="path76_1_" class="st5" d="M15285,1255.1h125.8c210.6,0,348.1,79,348.1,280.8c0,187.2-134.6,275-348.1,275
				c-35.1,0-96.5-2.9-125.8-5.8V1255.1z M15285,365.8h-368.6v1731.8c122.9,20.5,333.5,35.1,494.4,35.1
				c450.5,0,725.5-196,725.5-585.1c0-251.6-143.4-430-330.6-514.9l494.4-667h-438.8l-415.4,585.1H15285V365.8"/>
		</g>
		<g id="g78_1_" transform="scale(1.63452)">
			<path id="path80_1_" class="st3" d="M10968.9,13921.3c-2944.3,0-5331.1-2386.9-5331.1-5331.2
				c0-2944.2,2386.8-5331.1,5331.1-5331.1c2944.3,0,5331.1,2386.9,5331.1,5331.1C16300,11534.4,13913.2,13921.3,10968.9,13921.3"/>
		</g>
		<g id="g82_1_" transform="scale(1.4828)">
			<path id="path84_1_" class="st5" d="M3431.9,16300C1536.5,16300,0,14763.5,0,12868.1c0-1895.5,1536.5-3432,3431.9-3432
				c1895.4,0,3431.9,1536.5,3431.9,3432C6863.9,14763.5,5327.3,16300,3431.9,16300"/>
		</g>
		<path id="path86_1_" class="st4" d="M5088.9,14089.6C2278.4,14089.6,0,11811.2,0,9000.7s2278.4-5088.8,5088.9-5088.8
			c2810.5,0,5088.8,2278.3,5088.8,5088.8S7899.4,14089.6,5088.9,14089.6"/>
		<path id="path88_1_" class="st5" d="M11688.9,6961.5c-1922.4,0-3480.8-1558.4-3480.8-3480.8S9766.5,0,11688.9,0
			c1922.3,0,3480.7,1558.3,3480.7,3480.7S13611.2,6961.5,11688.9,6961.5"/>
		<g id="g90_1_" transform="scale(1.72279)">
			<path id="path92_1_" class="st4" d="M6784.9,16300c-1115.9,0-2020.5-904.6-2020.5-2020.4c0-1115.9,904.6-2020.4,2020.5-2020.4
				c1115.8,0,2020.4,904.5,2020.4,2020.4C8805.3,15395.4,7900.7,16300,6784.9,16300"/>
		</g>
		<g id="g94_1_" transform="scale(1.19509)">
			<path id="path96_1_" class="st4" d="M14500.1,4411.2c-994.2,0-1800.1-805.8-1800.1-1800c0-994.1,805.9-1799.9,1800.1-1799.9
				c994,0,1799.9,805.9,1799.9,1799.9C16300,3605.4,15494.1,4411.2,14500.1,4411.2"/>
		</g>
		<g id="g98_1_" transform="scale(1.6633)">
			<path id="path100_1_" class="st5" d="M10418.4,16300c-714.3,0-1293.4-579-1293.4-1293.3c0-714.2,579-1293.2,1293.4-1293.2
				c714.2,0,1293.2,579,1293.2,1293.2C11711.6,15721,11132.6,16300,10418.4,16300"/>
		</g>
		<g id="g102_1_" transform="scale(1.35081)">
			<path id="path104_1_" class="st5" d="M15315.9,4182.8c-543.5,0-984.1-440.6-984.1-984.2c0-543.5,440.6-984.1,984.1-984.1
				s984.1,440.6,984.1,984.1C16300,3742.1,15859.4,4182.8,15315.9,4182.8"/>
		</g>
		<g id="g106_1_" transform="scale(1.53927)">
			<path id="path108_1_" class="st4" d="M13440.7,16300c-477,0-863.6-386.7-863.6-863.6c0-477,386.6-863.7,863.6-863.7
				c476.9,0,863.6,386.7,863.6,863.7C14304.3,15913.3,13917.6,16300,13440.7,16300"/>
		</g>
	</g>
</g>
</svg>
